Segregación Residencial
…
print("Resumen estadístico del análisis de sensibilidad:")

[1] "Resumen estadístico del análisis de sensibilidad:"

print(summary_stats)

# A tibble: 28 × 7
   threshold density mean_segregation sd_segregation mean_steps
       <dbl>   <dbl>            <dbl>          <dbl>      <dbl>
 1       0.2     0.6            0.649         0.0200        6  
 2       0.2     0.7            0.613         0.0396        5.8
 3       0.2     0.8            0.589         0.0174        5.6
 4       0.2     0.9            0.569         0.0299        6.2
 5       0.3     0.6            0.796         0.0141       10.4
 6       0.3     0.7            0.749         0.0159       10.4
 7       0.3     0.8            0.771         0.0178        9.4
 8       0.3     0.9            0.755         0.0230       48.6
 9       0.4     0.6            0.859         0.0355       12.2
10       0.4     0.7            0.834         0.0221       12.4
# ℹ 18 more rows
# ℹ 2 more variables: mean_satisfaction <dbl>, n <int>
…
